[{"id":1,"first_name":"Thatch","last_name":"Gamett","email":"tgamett0@com.com","country":"Sweden"},
{"id":2,"first_name":"Alfons","last_name":"Bransden","email":"abransden1@aol.com","country":"Syria"},
{"id":3,"first_name":"Amandi","last_name":"Maass","email":"amaass2@arizona.edu","country":"Philippines"},
{"id":4,"first_name":"Ivy","last_name":"Gotthard.sf","email":"igotthardsf3@toplist.cz","country":"China"},
{"id":5,"first_name":"Abram","last_name":"Yitzhakov","email":"ayitzhakov4@newsvine.com","country":"Mexico"},
{"id":6,"first_name":"Elka","last_name":"Kingswell","email":"ekingswell5@symantec.com","country":"China"},
{"id":7,"first_name":"Dickie","last_name":"Pierucci","email":"dpierucci6@bbc.co.uk","country":"Indonesia"},
{"id":8,"first_name":"Ramonda","last_name":"Van Geffen","email":"rvangeffen7@timesonline.co.uk","country":"China"},
{"id":9,"first_name":"Farand","last_name":"Gail","email":"fgail8@epa.gov","country":"Bulgaria"},
{"id":10,"first_name":"Ogden","last_name":"Herrema","email":"oherrema9@cpanel.net","country":"Philippines"},
{"id":11,"first_name":"Ben","last_name":"Wyllcock","email":"bwyllcocka@sciencedirect.com","country":"Czech Republic"},
{"id":12,"first_name":"Dore","last_name":"Tregunna","email":"dtregunnab@huffingtonpost.com","country":"Philippines"},
{"id":13,"first_name":"Jack","last_name":"Heggs","email":"jheggsc@linkedin.com","country":"Japan"},
{"id":14,"first_name":"Brandais","last_name":"Applebee","email":"bapplebeed@businessinsider.com","country":"Peru"},
{"id":15,"first_name":"Winona","last_name":"Artrick","email":"wartricke@mail.ru","country":"France"},
{"id":16,"first_name":"Moyra","last_name":"Keerl","email":"mkeerlf@marketwatch.com","country":"Poland"},
{"id":17,"first_name":"Evan","last_name":"Else","email":"eelseg@phpbb.com","country":"China"},
{"id":18,"first_name":"Kelcy","last_name":"Turfus","email":"kturfush@time.com","country":"Yemen"},
{"id":19,"first_name":"Kaycee","last_name":"Ommundsen","email":"kommundseni@wunderground.com","country":"Canada"},
{"id":20,"first_name":"Genny","last_name":"Chazelas","email":"gchazelasj@dailymail.co.uk","country":"Greece"},
{"id":21,"first_name":"Vina","last_name":"Ferson","email":"vfersonk@fastcompany.com","country":"Colombia"},
{"id":22,"first_name":"Allyce","last_name":"Pittock","email":"apittockl@xinhuanet.com","country":"China"},
{"id":23,"first_name":"Betsy","last_name":"Curtois","email":"bcurtoism@harvard.edu","country":"China"},
{"id":24,"first_name":"Frasquito","last_name":"Wordsley","email":"fwordsleyn@latimes.com","country":"Honduras"},
{"id":25,"first_name":"Eudora","last_name":"Oglesbee","email":"eoglesbeeo@nba.com","country":"El Salvador"},
{"id":26,"first_name":"Cordula","last_name":"Lyness","email":"clynessp@prnewswire.com","country":"Thailand"},
{"id":27,"first_name":"Aldwin","last_name":"Hairsnape","email":"ahairsnapeq@si.edu","country":"Philippines"},
{"id":28,"first_name":"Frederica","last_name":"MacDowall","email":"fmacdowallr@google.it","country":"United States"},
{"id":29,"first_name":"Andee","last_name":"Hanhard","email":"ahanhards@scientificamerican.com","country":"France"},
{"id":30,"first_name":"Windy","last_name":"Walsom","email":"wwalsomt@techcrunch.com","country":"New Caledonia"}]